{
  "ExternalFunctions": [
    {
      "Name": "Unity.Collections.LowLevel.Unsafe.UnsafeUtility::Free",
      "FullName": "Unity.Collections.LowLevel.Unsafe.UnsafeUtility.Free(void* memory, Unity.Collections.Allocator allocator) -> void_aef4d46f9ec6d18a03913cfa3cd76414"
    },
    {
      "Name": "burst_abort",
      "FullName": "unused.burst_abort(System.String errorId, System.String message) -> void"
    }
  ]
}